{
"MyClients_label":{
"xpath":"//h1[text()='My Clients']"
},
"NewClient_btn":{
"xpath":"//a[text()='+ New Client']"
},
"Export_bnt":{
"xpath":"//button[text()='Export']"
},
"Import_btn":{
"xpath":"//button[text()='Import']"
},
"Import_help":{
"xpath":"(//span[@class='help-tip'])[1]"
},
"Delete_btn":{
"xpath":"//input[@id='btn-delete-client']"
},
"Delete_help":{

},
"EditIcon": {
	"xpath": "//a[text()='Edit']"
},
"NewOrEditClient_title":{

},
"FirstName_editField":{
"xpath":"//input[@id='FirstName']"
},
"LastName_editfield":{
"xpath":"//input[@id='LastName']"
},
"Email_editfield":{
"xpath":"//input[@id='Email']"
},
"PhoneNo_editfield":{
"xpath":"//input[@id='Phone']"
},
"Home_dropdown":{
"xpath":"//select[@id='PhoneType']"
},
"Notes_field":{
"xpath":"//textarea[@id='Notes']"
},
"SelectAll_checkbox":{
"xpath":"(//label[@class='k-checkbox-label'])[1]"
},
"Add_btn":{
"xpath":"//input[@id='save-client']"
},
"SaveButton": {
	"xpath":"//input[@id='save-client']"
},
"Back": {
	"xpath":"//a[@id='btn-back-to-my-clients']"
},
"NotesMessage": {
"xpath":"//p[text()='Notes']/span"
},
"AddClientSucessMsg":{
"xpath":"//div[@class='swal2-content']"
},
"OkButton":{
"xpath":"//button[@class='swal2-confirm styled']"
},
"UploadClients_title":{
"xpath":"//div[@id='import-client-modal']/p[@class='title']"
},
"FirstCheckBox":{
"xpath":"(//label[@class='checkbox'])[2]"
},
"DeleteConfirm":{
"xpath":"//button[@class='swal2-confirm styled']"
}

}