{
	"page": 1,
	"pageSize": 24,
	"sort": {
		"field": "",
		"dir": "asc"
	},
	"searchParams": {
		"IsGridView": true,
		"IsPhotoView": false,
		"IsMapView": false,
		"Builders": null,
		"Comms": null,
		"Markets": null,
		"Adult": false,
		"Sports": false,
		"Waterfront": false,
		"Views": false,
		"Parks": false,
		"Gated": false,
		"Pool": false,
		"Green": false,
		"SortFirstBy": "Austin",
		"SortBy": "Random",
		"PartnerId": 88,
		"PageSize": 24,
		"CommName": "",
		"StateName": "Texas",
		"MarketName": "Austin",
		"State": "TX",
		"PostalCode": "",
		"County": "",
		"City": "Austin",
		"Cities": [
		],
		"PostalCodes": [
		],
		"Counties": [
		],
		"PageNumber": 1,
		"GolfCourse": false,
		"NatureAreas": false,
		"SingleFamily": false,
		"MultiFamily": false,
		"ConsumerPromo": false,
		"AgentPromo": false,
		"CommunityStatus": "",
		"Bedrooms": 0,
		"Bathrooms": 0,
		"Garages": 0,
		"LivingAreas": 0,
		"Stories": 0,
		"MasterBedLocation": 0,
		"PriceLow": 0,
		"PriceHigh": 0,
		"SqFtLow": 0,
		"SqFtHigh": 0,
		"SchoolDistrictIds": "",
		"SortFacets": false,
		"WebApiSearchType": "Exact",
		"ComingSoon": false,
		"GetLocationCoordinates": false,
		"GetRadius": true,
		"CustomRadiusSelected": false,
		"Zoom": 10,
		"SchoolDistrict": null,
		"SchoolDistrictName": "",
		"IsMultiLocationSearch": false,
		"CenterSearchWithMapLat": 30.266899,
		"CenterSearchWithMapLng": -97.742798,
		"IsSavedSearch": false,
		"ClientId": null,
		"SrpType": "HomeResults",
		"SavedSearchName": null,
		"GrandOpeningStatus": false,
		"ComingSoonStatus": false,
		"CloseOutStatus": false,
		"CommStatusList": [
		],
		"MinLat": 0,
		"MinLng": 0,
		"MaxLat": 0,
		"MaxLng": 0,
		"IsSearchWithMap": false,
		"SortByColumn": "",
		"PhotoViewPageSize": 24,
		"PhotoViewPageNumber": 1,
		"PhotoViewSortBy": "Random",
		"PhotoViewSortOrder": false,
		"IsDrawInMap": false,
		"ApiGeographyNew": false,
		"ApiGeography": [
		],
		"ResponseParamList": [
		],
		"BuilderId": 0,
		"IsUnpublished": false,
		"CurrentPage": 1,
		"FixedPageSize": 8,
		"MarketId": 269,
		"OriginLat": 30.266899,
		"OriginLng": -97.742798,
		"Radius": 0,
		"Event": false,
		"SortOrder": false,
		"ExcludeBasicListings": false,
		"PlanName": null,
		"HotDeals": false,
		"NumStory": 0,
		"CommId": 0,
		"PlanId": 0,
		"SpecId": 0,
		"BrandId": 0,
		"Qmi": false,
		"NoBoyl": false,
		"Cache": false,
		"LastCached": false,
		"ExcludeBasiCommunities": false,
		"HomeStatus": null,
		"CountsOnly": false,
		"ExtCommDetail": false,
		"ExtMapPoints": false,
		"ExtHomeDetail": false,
		"ExcludeImages": false,
		"ExcludeVideos": false,
		"ExcludeCountsAndFacets": false,
		"ExcludeSummary": false,
		"ExcludeCustomAmenities": false,
		"ExcludeDescription": false,
		"ExcludeInteractiveMedia": false,
		"ExcludeFloorPlans": false,
		"ExlucedeFloorPlanViewerUrl": false,
		"ExcludeEnvisionUrl": false,
		"ExcludeTollFreeNumber": false,
		"ExcludeSchoolDistricts": false,
		"ExcludeCommunityMap": false,
		"ExcludeHomeOptions": false,
		"ExcludeBuilderMap": false,
		"ExcludeVideoTour": false,
		"ExcludeAmenities": false,
		"ExcludePromotions": false,
		"ExcludeEvents": false,
		"ExcludeAgents": false,
		"ExcludeNonPdfBrochure": false,
		"ExcludeUtilities": false,
		"ExcludeFeesAndTaxes": false,
		"BasicListingToTheEnd": null,
		"MaxReturnRows": 0,
		"AgeRestricted": false,
		"Promo": false,
		"ApiGeographyPolygonIntersects": null,
		"CommIdsSort": null,
		"PlanIdsSort": null,
		"SpecIdsSort": null,
		"Brands": null,
		"SpecIds": null,
		"TotalRecords": 0
	}
}
