{
	"Saved_Listing_title": {
		"xpath": "//h1[contains(text(),'Saved Listing')]"
	},
	"Send_btn": {
		"xpath": "//ul[@class='results-actions']//input[@value='Send']"
	},
	"SendAgain":
	{
		"xpath":"//button[@class='swal2-confirm styled']"
	},
	"Previous" :{
		"xpath":"(//a[@class='bx-prev'])[1]"
	},
	"Next" :{
		"xpath":"(//a[@class='bx-next'])[1]"
	},
	"Send_popup": {
		"SendForconfirmation_btn": {
			"xpath": "//button[text()='Send']"
		},
		"Noforconfirmation_btn": {
			"xpath": "//button[text()='No']"
		},
		"EditEmail_title": {
			"xpath": "//div[@id='confirm-email']/p[@class='title'][text()='Edit Email?']"
		},
		"Yes_btn": {
			"xpath": "//input[@value='Yes']"
		},
		"No_btn": {
			"xpath": "//input[@value='No']"
		},
		"OK_Done_btn":{
		"xpath":"//button[text()='OK']"
		},
		"PreviewEmail_title": {
			"xpath": "//p[contains(text(),'Preview Email')]"
		},
		"EditMessage": {
			"xpath": "//button[text()='Edit Message']"
		},
		"CopyClipBoard_btn": {
			"xpath": "//button[text()='Copy Email To Clipboard']"
		},
		"Send_btn": {
			"xpath": "//button[text()='Send']"
		},
		"Cancel_btn": {
			"xpath": "//button[@id='cancel-edit']"
		},
		"EditMessagePopup_title": {
			"xpath": "//h1[text()='Email Message Copied!']"
		},
		"Done_title": {
			"xpath": "//h2[text()='Done!']"
		}
	},
	"Help_icon": {
		"xpath": "//ul[@class='results-actions']//span"
	},
	"PrintReport_btn": {
		"xpath": "//ul[@class='results-actions']//button"
	},
	"PrintReport_popup": {
		"PrintReport_title": {
			"xpath": "//div[@id='print-report-modal']/p[@class='title']"
		},
		"Agent_Version": {
			"xpath": "//button[@id='print-report-agent-version']"
		},
		"Client_Version": {
			"xpath": "//button[@id='print-report-client-version']"
		}
	},
	"Delete_btn": {
		"id": "delete-saved-listing"
	},
	"Delete_confirmation_popup": {
		"xpath": "//button[text()='Delete']"
	},
	"Cancel_confirmation_popup": {
		"xpath": "//button[text()='Cancel']"
	},
	"SelectAll_checkbox": {
		"xpath": "//label[@for='selectAll']"
	},
	"Communities_tab": {
		"xpath": "//ul[@class='tabs']//label[text()='Communities']"
	},
	"Back_link": {
		"xpath": "//a[@id='savedListingsBackButton']"
	},
	"Preview": {
		"RequestToRegister_button": {
			"xpath": "//div[@id='previewItem']//p/a[text()='Request to Register Client']"
		},		
		"Send_btn": {
			"xpath": "//div[@id='previewItem']/div//p/input[@value='Send']"
		},
		"PrintReport": {
			"xpath": "//div[@id='previewItem']/div//p/a[contains(text(),'Print Report')]"
		}
	}
}
