{
	"PriceFilter": {
		"Price_title": {
			"xpath": "//p[@id='facet-price-summary-title']"
		},
		"Price_selected": {
			"xpath": "//p[@id='facet-price-summary']"
		},
		"Price": {
			"xpath": "//div[@id='tab-facet-price']"
		},
		"MinPrice": {
			"xpath": "//input[@id='PriceLow']"
		},
		"MaxPrice": {
			"xpath": "//input[@id='PriceHigh']"
		},
		"UpdatePrice_btn": {
			"xpath": "(//input[@class='btn btn-orange facet-update'])[2]"
		}
	},
	"BedsandBathFilter": {
		"Bath_BedLabel": {
			"xpath": "//div[@id='tab-facet-beds']/p[@id='beds-baths-title']"
		},
		"BedRoom_value": {
			"id": "facet-beds-summary"
		},
		"BathRoom_value": {
			"id": "facet-baths-summary"
		},
		"Apply_btn": {
			"xpath": "(//div[@id='updateBedBath']/p/input)[2]"
		}
	},
	"SquareFeetFilter": {
		"SquareFeet_title": {
			"xpath": "//div[@id='tab-facet-sqft']/p[@class='facet-title']"
		},
		"SquareFeet_value": {
			"xpath": "//div[@id='tab-facet-sqft']/p[@id='facet-sqft-summary']"
		},
		"SquareFeet_Minvalue": {
			"xpath": "//input[@id='SqFtLow']"
		},
		"SquareFeet_MaxValue": {
			"xpath": "//input[@id='SqFtHigh']"
		}
	},
	"LocationFilter": {
		"Nearby_Cities": {
			"xpath": "//div[@class='facet-last']/label[contains(text(),'Nearby Cities')]"
		},
		"Zip_Code": {
			"xpath": "//div[@class='facet-last']/label[contains(text(),'Zip Code')]"
		},
		"School_Districts": {
			"xpath": "//div[@class='facet-last']/label[contains(text(),'School Districts')]"
		},
		"Counties": {
			"xpath": "//div[@class='facet-last']/label[contains(text(),'Counties')]"
		},
		"All_Builders": { 
		    "xpath": "//button[@id='BuilderName']"
		},
		"Not_Billed": { 
		     "xpath": "//button[@id='menu_id']/..//li[@id='93']"
		},
		"Update_btn": {
			"xpath": "//div[@id='facet-location-places']//input[@value='Update']"
		}
	},
	"MoreFilter":{ 
	    "MoreButton": { 
	        "xpath": "//body[1]/main[1]/section[1]/div[1]/div[1]/div[6]/div[1]"
	    },
	    "Normal": { 
	        "xpath": "//span[contains(text(),'Normal')]"
	    },
	    "ComingSoon": { 
	        "xpath": "//span[contains(text(),'Coming Soon')]"
	    },
	    "UpdateButton": { 
	        "xpath": "//body/main[@id='main-content']/section[@id='results']/div[1]/div[1]/div[6]/div[2]/p[1]/input[1]"
	    }
	},
	"BreadCrumb": {
		"ResultLabel": {
			"xpath": "(//span[@class='crumb-back-search'])[1]"
		},
		"State": {
			"xpath": "(//span[@class='crumb-back-search'])[2]"
		},
		"Location_Area": {
			"xpath": "//ol[@itemprop='breadcrumb']/li[3]"
		},
		"City": {
			"xpath": "//ol[@itemprop='breadcrumb']/li[4]"
		},
		"Bredcrumb_home_count": {
			"xpath": "//strong[@id='breadcrumbCount']"
		}
	},
	"Preview": {
		"RequestToRegister_button": {
			"xpath": "//p[@class='results-item-actions m-bottom-0']/a[text()='Request to Register Client']"
		},
		"SaveListing_btn": {
			"xpath": "//div[@id='previewItem']/div//p[contains(@class,'results-item-actions')]/a[contains(text(),'Listing')]"
		},
		"PrintReport": {
			"xpath": "//p[@class='results-item-actions m-bottom-0']/a[text()='Print Report']"
		},
		"ContactTheBuilder_tab": {
			"id": "contact"
		},
		"ContactBuilder_txtArea": {
			"id": "message-contact-to-builder"
		},
		"ContactMe_txtArea": {
			"xpath": "//body[1]/main[1]/section[1]/div[1]/div[7]/div[1]/div[3]/div[1]/div[1]/p[3]/textarea[1]"
		},
		"ContactMe_Send_Button": {
		    "xpath": "//body/main[@id='main-content']/section[@id='results']/div[1]/div[7]/div[1]/div[3]/div[1]/div[1]/div[1]/p[1]/input[1]"
		},
		"ContactBuilderAgent_btn": {
			"id": "send-contact-to-builder"
		},
		"ContactAgentSales_btn": {
		    "xpath": "//input[@id='send-contact-to-builder']"
		},
		"RequestToRegisterClient_btn_Builder": {
		    "xpath": "//body/main[@id='main-content']/section[@id='results']/div[1]/div[7]/div[1]/div[3]/div[1]/a[1]"
		},
		"SuccessMessageAfterContactSalesAgentButtonClicked": {
		    "xpath": "//a[@id='another-message']"
		},
		"ContactMeFormTabPreview": {
		    "xpath": "//a[@id='contact']"
		},
		"SuccessMessageAfterContactMeButtonClicked": {
		    "xpath": "//body/main[@id='main-content']/section[@id='results']/div[1]/div[7]/div[1]/div[3]/div[1]/div[1]/p[3]/span[4]/a[1]"
		}
	},
	"SaveSearch": {
		"Save_Search_button": {
			"id": "facet-save-search-btn"
		},
		"Save_Search_title": {
			"xpath": "//p[text()='Save this Search']"
		},
		"NameThisSearch_field": {
			"xpath": "//input[@id='name']"
		},
		"SearchClient_field": {
			"xpath": "//div[@id='dropdownlist_chosen']//input"
		},
		"SearchClient_OnSearchForClient_popup": {
			"xpath": "//li[@class='search-field']/input[@value='Enter Client Name']"
		},
		"Save_btn": {
			"xpath": "//input[@value='Save']"
		},
		"SaveandEmail_btn": {
			"id": "save-email"
		},
		"Preview_the_Email_link": {
			"id": "preview-email"
		},
		"Close_icon": {
			"xpath": "//a[@class='close']"
		}
	},
	"PhotoView": {
		"SaveListing_main": {
			"id": "saveListings"
		},
		"PrintReport_main": {
			"id": "printReport"
		}
	},
	"MapView": {
		"DrawOnMap_icon": {
			"xpath": "//label[@for='DrawOnMap']//*[local-name()='svg']"
		},
		"SearchWithInMap": {
			"xpath": "//label[@for='SearchMapArea']/span"
		},
		"ZoomIn": {
			"xpath": "//button[@aria-label='Zoom in']"
		},
		"ZoomOut": {
			"xpath": "//button[@aria-label='Zoom out']"
		}
	},
	"Pagination": {
		"PageInformation": {
			"xpath": "(//span[@class='k-pager-info k-label'])[1]"
		},
		"list_Pagination_dropdown": {
			"xpath": "//div[@id='grid']//select[@aria-label='pager-select']"
		},
		"list_PageInformation_label":{
		"xpath":"//div[@id='grid']//span[@class='k-pager-info k-label']"
		},
		"photo_Pagination_dropdown": {
			"xpath": "//div[@id='photoView-pager']//select"
		},
		"photo_pageInformation_label":{
		"xpath":"//div[@id='photoView-pager']//span[@class='k-pager-info k-label']"
		}
	},
	"RequestToRegister_poup": {
		"xpath": "//button[@id='Register-Client']"
	},
	"ShareSearch": {
		"xpath": "//a[text()='Share Search']"
	},
	"ShareSearchPopUp": {
		"xpath": "//div[@class='swal2-content']/a"
	},
	"ShareSearch_Close_icon": {
		"xpath": "//span[@class='swal2-close']"
	},
	"ResetFilters": {
		"xpath": "//p[@id='facets-clear']/img"
	},
	"Location_field": {
		"xpath": "//input[@id='LocationSearchTextBox']"
	},
	"Facet_count": {
		"xpath": "//div[@id='updatePriceRange']/p[@class='facet-counts']"
	},
	"SearchIcon": {
		"xpath": "//input[@id='submitLocation']"
	},
	"Ok_btn": {
		"xpath": "//button[text()='OK']"
	},
	"List_tab": {
		"xpath": "//a[@id='listView']"
	},
	"SortBy_dropdown": {
		"id": "sort-select"
	},
	"Homes_tab": {
		"xpath": "//ul[@class='tabs']/li/label[text()='Homes']"
	},
	"Communities_tab": {
		"xpath": "//ul[@class='tabs']/li/label[text()='Communities']"
	},
	"SaveListing_main_pro": {
		"id": "saveListings"
	},
	"SaveListing_title": {
		"xpath": "//div[@id='save-to-listing']/p[@class='title']"
	},
	"Client_name": {
		"xpath": "//input[@class='chosen-search-input default']"
	},
	"SaveListing_Save_btn": {
		"id": "save-saveListing"
	},
	"SaveListing_SaveandEmail_btn": {
		"xpath": "//input[@id='save-email-saveListing']"
	},
	"PreviewtheEmail_link": {
		"id": "preview-email"
	},
	"EditEmail_title": {
		"xpath": "//div[@id='confirm-email']/p[@class='title']"
	},
	"Yes_btn": {
		"xpath": "//input[@value='Yes']"
	},
	"No_btn": {
		"xpath": "//input[@value='No']"
	},
	"PreviewEmail_title": {
		"xpath": "//p[contains(text(),'Preview Email')]"
	},
	"EditMessage": {
		"xpath": "//button[text()='Edit Message']"
	},
	"CopyClipBoard_btn": {
		"xpath": "//button[text()='Copy Email To Clipboard']"
	},
	"Send_btn": {
		"xpath": "//button[text()='Send']"
	},
	"Cancel_btn": {
		"xpath": "//button[@id='cancel-edit']"
	},
	"EditMessagePopup_title": {
		"xpath": "//h1[text()='Email Message Copied!']"
	},
	"Done_title": {
		"xpath": "//h2[text()='Done!']"
	},
	"close_icon": {
		"xpath": "//a[@class='close']"
	},
	"PrintReport": {
		"id": "printReport"
	},
	"SelectAll_checkbox": {
		"xpath": "//label[@for='selectAll']"
	},
	"First_Checkbox": {
		"xpath": "(//tr[@role='row']/td//label[@class='k-checkbox-label'])[1]"
	},
	"Print_Report": {
		"xpath": "//button[@id='printReport']"
	},
	"Saved_Listing": {
		"xpath": "//button[@id='saveListings']"
	},
	"Agent_Version": {
		"xpath": "//button[@id='print-report-agent-version']"
	},
	"Client_Version": {
		"xpath": "//button[@id='print-report-client-version']"
	},
	"List_View": {
		"id": "listView"
	},
	"Photo_View": {
		"id": "photoView"
	},
	"Map_View": {
		"id": "mapView"
	},
	"SortBy_Featured": {
		"id": "SortByFeatured"
	},
	"SortBy_City": {
		"id": "SortByCity"
	},
	"SortBy_Price": {
		"id": "SortByPrice"
	},
	"SortBy_Distance": {
		"id": "SortByDistance"
	},
	"SortBy_Home": {
		"id": "SortByHomeName"
	},
	"SortBy_Community": {
		"id": "SortByCommName"
	},
	"FirstGridHome": {
		"xpath": "(//tr[@role='row']//a)[1]"
	},
	"HomePreview": {
		"xpath": "(//p[@class='item-title'])[1]"
	},
	"SecondGridHome": {
		"xpath": "(//tr[@role='row']//a)[2]"
	},
	"HomePreview_update": {
		"xpath": "//div[@id='previewItem']//a[@class='preview-home-link']"
	},
	"CommunityPreview": {
		"xpath": "//body/main[@id='main-content']/section[@id='results']/div[1]/div[7]/div[1]/div[1]/div[1]/span[1]/a[1]"
	},
	"SecondHomePreview": {
		"xpath": "(//p[@class='item-title']/a)[2]"
	},
	"CloseSRPpopup": {
		"xpath": "//a[@id='cnb-top']"
	},
	"CloseBatchProcessionPopup":{
		"xpath":"//w-div//span"
	},
	"CloseSignMeUp": {
		"xpath": "//span[@class='glu4vdf']"
	},
	"OK_btn_saveListing": {
		"xpath": "//div[@class='save-email-listing']//button[text()='OK']"
	},
	"OK_btn_printReport": {
		"id": "print-report-client-version"
	},
	"PrintOKClient": {
		"xpath": "//button[@id='print-report-client-version']"
	},
	"HomeCount": {
		"xpath": "//strong[@id='breadcrumbCount']"
	},
	"ItemPerPage": {
		"xpath": "(//span[@class='k-pager-sizes k-label'])[1]"
	},
	"TotalNumberOfRows": {
		"xpath": "//tr[@role='row']"
	},
	"GridSecondPage": {
		"xpath": "//a[text()='2']"
	},
	"GridFirstPage": {
		"xpath": "//a[text()='1']"
	},
	"Pagination_dropdown": {
		"xpath": "(//span[@class='k-pager-sizes k-label'])[1]/select"
	},
	"SignUp_popup": {
		"xpath": "(//w-div//span)[2]"
	},
	"SaveAndEmailOfSaveSearch": {
		"xpath": "//input[@id='save-email']"
	},
	"PreviewOfSavesearch": {
		"xpath": "//a[text()='Preview the Email']"
	},
	"NewClient": {
		"xpath": "//li[text()='+ New Client']"
	},
	"Email_editfield": {
		"xpath": "//input[@id='email']"
	},
	"FirstName_editField": {
		"xpath": "//input[@id='first-name']"
	},
	"LastName_editfield": {
		"xpath": "//input[@id='last-name']"
	},
	"PhoneNo_editfield": {
		"xpath": "//input[@id='phone']"
	},
	"AdSponsoredBy":{
		"xpath":"(//a[@id='pro8_nativeSponsorIframe'])[1]"
	},
	"AdTitle":{
		"xpath":"(//h2[@id='pro8_nativeHeadlineIframe'])[1]"
	},
	"AdDescription":{
		"xpath":"(//div[@id='pro8_nativeDescriptionIframe'])[1]"
	},
	"AdCountOnSRP":{
		"xpath":"//td[@class='srp-grid-native-ads-row']"
	},
	"PreviewAdTitle":{
		"xpath":"(//h2[@id='pro8_nativeHeadlineIframe'])[3]"
	},
	"PreviewAdDescription":{
		"xpath":"(//div[@id='pro8_nativeDescriptionIframe'])[3]"
	},
	"ButtonOnAd":{
		"xpath":"(//button[@class='pro8_ad-action btn btn-orange pro8_ContactIframe ad__link'])[1]"
	}
}